[
  {
    "ticketId": 7,
    "description": "deserunt cillum ullamco anim laborum",
    "priority": "Normal",
    "status": "REQUEST APPROVAL",
    "reportedBy": "person3",
    "supportTeam": "support area 4",
    "recipient": "recipient4",
    "ticketType": "category3",
    "deliveryDate": "18/09/2016",
    "nextStates": [
        {"id":"rejected", "text": "REJECTED"},
        {"id":"analysisApproved", "text": "ANALYSIS APPROVED"}
    ],
    "associatedPartners": [
        {"partnerId":"17", "partnerName": "Cosmetex"},
        {"partnerId":"10", "partnerName": "Entropix"}
    ],
    "deliveryDateCounterStop": "04/12/2016"
  },
  {
    "ticketId": 9,
    "description": "ex sit ex consequat qui",
    "priority": "Warning",
    "status": "REQUEST APPROVAL",
    "reportedBy": "person1",
    "supportTeam": "support area 3",
    "recipient": "recipient4",
    "ticketType": "category2",
    "deliveryDate": "19/03/2016",
    "nextStates": [
        {"id":"rejected", "text": "REJECTED"},{"id":"analysisApproved", "text": "ANALYSIS APPROVED"}
    ],
    "associatedPartners": [
        {"partnerId":"17", "partnerName": "Cosmetex"},
        {"partnerId":"10", "partnerName": "Entropix"}
    ],
    "deliveryDateCounterStop": "16/11/2016"
  },
  {
    "ticketId": 17,
    "description": "Lorem aute fugiat Lorem eiusmod",
    "priority": "Urgent",
    "status": "NEW",
    "reportedBy": "person1",
    "supportTeam": "support area 3",
    "recipient": "recipient2",
    "ticketType": "category2",
    "deliveryDate": "13/05/2016",
    "nextStates": [
        {"id":"inProcess", "text": "IN PROCESS"}
    ],
    "associatedPartners": [
        {"partnerId":"17", "partnerName": "Cosmetex"},
        {"partnerId":"10", "partnerName": "Entropix"}
    ],
    "deliveryDateCounterStop": "04/10/2017"
  },
  {
    "ticketId": 15,
    "description": "proident proident Lorem eu in",
    "priority": "Warning",
    "status": "IN PROCESS",
    "reportedBy": "person2",
    "supportTeam": "support area 4",
    "recipient": "recipient4",
    "ticketType": "category3",
    "deliveryDate": "21/10/2016",
    "nextStates": [
        {"id":"assignedToDiligent", "text": "ASSIGNED TO DILIGENT"},{"id":"confirmed", "text": "CONFIRMED"}
    ],
    "associatedPartners": [
        {"partnerId":"17", "partnerName": "Cosmetex"},
        {"partnerId":"10", "partnerName": "Entropix"}
    ],
    "deliveryDateCounterStop": "19/08/2017"
  },
  {
    "ticketId": 16,
    "description": "sunt ipsum dolore incididunt cupidatat",
    "priority": "Urgent",
    "status": "ANALYSIS",
    "reportedBy": "person2",
    "supportTeam": "support area 1",
    "recipient": "recipient2",
    "ticketType": "category4",
    "deliveryDate": "19/06/2016",
    "nextStates": [
        {"id":"requestInfo", "text": "REQUEST INFO"},{"id":"requestApproval", "text": "REQUEST APPROVAL"}
    ],
    "associatedPartners": [
        {"partnerId":"17", "partnerName": "Cosmetex"},
        {"partnerId":"10", "partnerName": "Entropix"}
    ],
    "deliveryDateCounterStop": "20/10/2017"
  },
  {
    "ticketId": 8,
    "description": "ea anim incididunt ea mollit",
    "priority": "Normal",
    "status": "ANALYSIS",
    "reportedBy": "person3",
    "supportTeam": "support area 4",
    "recipient": "recipient2",
    "ticketType": "category4",
    "deliveryDate": "28/05/2016",
    "nextStates": [
        {"id":"requestInfo", "text": "REQUEST INFO"},{"id":"requestApproval", "text": "REQUEST APPROVAL"}
    ],
    "associatedPartners": [
        {"partnerId":"17", "partnerName": "Cosmetex"},
        {"partnerId":"10", "partnerName": "Entropix"}
    ],
    "deliveryDateCounterStop": "10/09/2017"
  },
  {
    "ticketId": 10,
    "description": "quis veniam cillum laboris duis",
    "priority": "Urgent",
    "status": "IN PROCESS",
    "reportedBy": "person1",
    "supportTeam": "support area 2",
    "recipient": "recipient4",
    "ticketType": "category3",
    "deliveryDate": "07/10/2016",
    "nextStates": [
        {"id":"rejected", "text": "REJECTED"},{"id":"analysisApproved", "text": "ANALYSIS APPROVED"}
    ],
    "associatedPartners": [
        {"partnerId":"17", "partnerName": "Cosmetex"},
        {"partnerId":"10", "partnerName": "Entropix"}
    ],
    "deliveryDateCounterStop": "16/05/2017"
  },
  {
    "ticketId": 14,
    "description": "dolor est quis pariatur consequat",
    "priority": "Warning",
    "status": "IN PROCESS",
    "reportedBy": "person3",
    "supportTeam": "support area 1",
    "recipient": "recipient2",
    "ticketType": "category1",
    "deliveryDate": "30/01/2016",
    "nextStates": [
        {"id":"assignedToDiligent", "text": "ASSIGNED TO DILIGENT"},{"id":"confirmed", "text": "CONFIRMED"}
    ],
    "associatedPartners": [
        {"partnerId":"17", "partnerName": "Cosmetex"},
        {"partnerId":"10", "partnerName": "Entropix"}
    ],
    "deliveryDateCounterStop": "21/04/2017"
  }
]