[
    {

    "userGeneralData":
        {
            "username":"X000338",
            "fullName":"SENSITIVO FRANCESCO",
            "customer":"5838",
            "name":"SENSITIVO FRANCESCO",
            "email":"mail.fasulla@gmail.com"
        },
    "organizationData":
        {
          "results":
            [
              {
                "username":"X000338",
                "salesOrg":"SA20",
                "distributionChannel":"DO",
                "division":"RI",
                "areaManager":"C002",
                "areaManagerText":"CENTRO-SUD ITALIA",
                "territoryManager":"C27",
                "territoryManagerText":"CS7 - MEMEO R."
              },
              {
                "username":"X000338",
                "salesOrg":"SA40",
                "distributionChannel":"DO",
                "division":"RI",
                "areaManager":"R001",
                "areaManagerText":"SEDE FIT",
                "territoryManager":"R01",
                "territoryManagerText":"SEDE FIT"
              }
            ]
        }


    },

    {
    "userGeneralData":
          {
            "username":"X000279",
            "fullName":"DE BLASI ALESSANDRO",
            "customer":"5779",
            "name":"DE BLASI ALESSANDRO",
            "email":"mail.falsa@gmail.com"
          },
    "organizationData":
        {
          "results":
            [
              {
                "username":"X000279",
                "salesOrg":"SA10",
                "distributionChannel":"DO",
                "division":"BR",
                "areaManager":"PVM0",
                "areaManagerText":"Post Vend/Merchandis",
                "territoryManager":"PVM",
                "territoryManagerText":"Post Vend/Merchandis"
              },
              {
                "username":"X000279",
                "salesOrg":"SA20",
                "distributionChannel":"DO",
                "division":"RI",
                "areaManager":"C002",
                "areaManagerText":"CENTRO-SUD ITALIA",
                "territoryManager":"C21",
                "territoryManagerText":"CS3 - VOLTERRANI D."
              },
              {
                "username":"X000279",
                "salesOrg":"SA40",
                "distributionChannel":"DO",
                "division":"RI",
                "areaManager":"R001",
                "areaManagerText":"SEDE FIT",
                "territoryManager":"R01",
                "territoryManagerText":"SEDE FIT"
              }
            ]
        }

    },

    {
    "userGeneralData":
        {
        "username":"X003238",
        "fullName":"JERACE FRANCESCO",
        "customer":"62409",
        "name":"JERACE FRANCESCO",
        "email":"mail.tarocca@gmail.com"
        },
    "organizationData":
        {
          "results":
            [
                {
                "username":"X003238",
                "salesOrg":"SA20",
                "distributionChannel":"DO",
                "division":"TH",
                "areaManager":"FC04",
                "areaManagerText":"Tyrrhenian & Islands",
                "territoryManager":"FC4",
                "territoryManagerText":"Giovanni Santoro"
                }
            ]
        }

    }
]
